..................
----------------------------------------------------------------------
Ran 18 tests in 25.574s

OK
Name             Stmts   Miss Branch BrPart  Cover   Missing
------------------------------------------------------------
Collatz.py          41      0     20      0   100%
TestCollatz.py      80      0      0      0   100%
------------------------------------------------------------
TOTAL              121      0     20      0   100%